1.002063071028588714e+00,4.084699453551912662e-02
2.004126142057177429e+00,8.572729638303408506e-02
3.006189213085764145e+00,1.131667967733541447e-01
4.008252284114354858e+00,1.455893832943012944e-01
5.010315355142941129e+00,1.593416601613322769e-01
6.012378426171528290e+00,1.686768149882903745e-01
7.014441497200117226e+00,1.845498308613062466e-01
7.987032124963159951e+00,1.936572989851678139e-01
8.989095195991748000e+00,2.013986468904501170e-01
9.991158267020340489e+00,2.150598490762424819e-01
1.099322133804892054e+01,2.303148581837106412e-01
1.199528440907751303e+01,2.329104865990112294e-01
1.299734748010610019e+01,2.356427270361697024e-01
1.399941055113469446e+01,2.466627634660421564e-01
1.500147362216327984e+01,2.511709601873535758e-01
1.600353669319186878e+01,2.568631277647671074e-01
1.700559976422044883e+01,2.706154046317980622e-01
1.800766283524904310e+01,2.808613062711423081e-01
1.900972590627762671e+01,2.945225084569346730e-01
2.001178897730621742e+01,3.075917252146760372e-01
2.101385204833480813e+01,3.171545667447306371e-01
2.198644267609784109e+01,3.226190476190475831e-01
2.298850574712643535e+01,3.308157689305230020e-01
2.399056881815502607e+01,3.328649492583918845e-01
2.499263188918360967e+01,3.416081186572990092e-01
2.599469496021220039e+01,3.498048399687744281e-01
2.699675803124078755e+01,3.630106687483736216e-01
2.799882110226938892e+01,3.724368982565703923e-01
2.900088417329796542e+01,3.752602133749673996e-01
3.000294724432655968e+01,3.921090294041113533e-01
3.100501031535513619e+01,3.998503773093936564e-01
3.200707338638373756e+01,4.059979182930001929e-01
3.300913645741231761e+01,4.141946396044756118e-01
3.401119952844089767e+01,4.147410876919073730e-01
3.501326259946950614e+01,4.174733281290658460e-01
3.598585322723254620e+01,4.267434296122820658e-01
3.698791629826113336e+01,4.344847775175644244e-01
3.798997936928971342e+01,4.411787665886027221e-01
3.899204244031830058e+01,4.501496226906062659e-01
3.999410551134688774e+01,4.519060629716367128e-01
4.099616858237547490e+01,4.614689045016913682e-01
4.199823165340406916e+01,4.669333853760082587e-01
4.300029472443264922e+01,4.710317460317459681e-01
4.400235779546122927e+01,4.710317460317459681e-01
4.500442086648983064e+01,4.726255529534217903e-01
4.600648393751842491e+01,4.767239136091594998e-01
4.700854700854701207e+01,4.794561540463179727e-01
4.801061007957560633e+01,4.808222742648972092e-01
4.901267315060418639e+01,4.897020556856622187e-01
5.001473622163278065e+01,4.992648972157168741e-01
5.098732684939582782e+01,5.003382773874577305e-01
5.198938992042440077e+01,5.008847254748893807e-01
5.299145299145298083e+01,5.045277127244339743e-01
5.399351606248157509e+01,5.093091334894612743e-01
5.499557913351015515e+01,5.188719750195159852e-01
5.599764220453877783e+01,5.261579495186051725e-01
5.699970527556735078e+01,5.288901899557636455e-01
5.800176834659593084e+01,5.357207910486598834e-01
5.900383141762451800e+01,5.362672391360915336e-01
6.000589448865311937e+01,5.435532136351808319e-01
6.100795755968169942e+01,5.490176945094977778e-01
6.201002063071027237e+01,5.503838147280769588e-01
6.301208370173886664e+01,5.503838147280769588e-01
6.401414677276747511e+01,5.517499349466562508e-01
6.498673740053051517e+01,5.524329950559457858e-01
6.598880047155910233e+01,5.540268019776216635e-01
6.699086354258768949e+01,5.567590424147801365e-01
6.799292661361624823e+01,5.617681498829040221e-01
6.899498968464483539e+01,5.665495706479313220e-01
6.999705275567345097e+01,5.706479313036689760e-01
7.099911582670202392e+01,5.733801717408274490e-01
7.200117889773061108e+01,5.774785323965652140e-01
7.300324196875919824e+01,5.811215196461098076e-01
7.400530503978779961e+01,5.838537600832682806e-01
7.500736811081640099e+01,5.861306271142336932e-01
7.600943118184497393e+01,5.888628675513921662e-01
7.701149425287356109e+01,5.888628675513921662e-01
7.801355732390213404e+01,5.902289877699713472e-01
7.898614795166520253e+01,5.915951079885506392e-01
7.998821102269377548e+01,5.970595888628675851e-01
8.099027409372237685e+01,5.970595888628675851e-01
8.199233716475094980e+01,5.997918293000260581e-01
8.299440023577950853e+01,6.011579495186052391e-01
8.399646330680813833e+01,6.011579495186052391e-01
8.499852637783671128e+01,6.052563101743428930e-01
8.600058944886529844e+01,6.052563101743428930e-01
8.700265251989389981e+01,6.061670569867291247e-01
8.800471559092245855e+01,6.061670569867291247e-01
8.900677866195108834e+01,6.116315378610460707e-01
9.000884173297966129e+01,6.129976580796252517e-01
9.101090480400826266e+01,6.164129586260733706e-01
9.201296787503684982e+01,6.173237054384596023e-01
9.298555850279988988e+01,6.189175123601352579e-01
9.398762157382847704e+01,6.216497527972937309e-01
9.498968464485704999e+01,6.216497527972937309e-01
9.599174771588565136e+01,6.230158730158730229e-01
9.699381078691421010e+01,6.257481134530314959e-01
9.799587385794283989e+01,6.293911007025760895e-01
9.899793692897141284e+01,6.311475409836065920e-01
1.000000000000000000e+02,6.311475409836065920e-01
