5.000000000000000278e-02,2.463802856220889126e-01,2.210920145262879888e-01,2.538235199017040492e-03,2.298137272905444346e-03,4.931979326979447187e+00,4.425765000842793562e+00
1.000000000000000056e-01,4.020074339746471104e-01,2.564398417207528480e-01,2.072734124740908263e-03,1.538116193478792412e-03,4.019678273309057026e+00,2.564145767117163022e+00
1.500000000000000222e-01,5.161157527960805735e-01,2.690919383224041339e-01,1.771827405700006266e-03,1.197272473759093897e-03,3.441562927153365870e+00,1.794358792400840841e+00
2.000000000000000111e-01,6.041668258881374154e-01,2.648230407506803608e-01,1.562626181054672025e-03,1.002617605349140958e-03,3.020536510314633549e+00,1.323984749053524590e+00
2.500000000000000000e-01,6.701919702944293400e-01,2.656890226518217046e-01,1.392505670179701276e-03,8.582267870132070106e-04,2.681032048292535830e+00,1.062860816276444131e+00
2.999999999999999889e-01,7.435886821132722257e-01,2.512775611759157646e-01,1.274148249840731341e-03,7.495740207104930296e-04,2.478384740481970105e+00,8.375093492198255607e-01
3.500000000000000333e-01,7.918800613472743999e-01,2.293647067641702009e-01,1.159202235021906903e-03,6.633501082671751153e-04,2.262610006366409632e+00,6.553554079249896969e-01
4.000000000000000222e-01,8.253008451778942600e-01,2.150966501654173191e-01,1.057901962367762067e-03,5.980979861801445077e-04,2.063048836874494807e+00,5.376886459430592069e-01
4.500000000000000111e-01,8.595254017385164369e-01,2.053115388743359526e-01,9.811417378891812251e-04,5.490618933676548030e-04,1.910077359808233677e+00,4.562528592151599560e-01
5.000000000000000000e-01,8.935154023268778722e-01,1.844443244972411855e-01,9.175675413713112703e-04,5.060037341972957198e-04,1.787206901500883793e+00,3.689249998664762553e-01
5.500000000000000444e-01,9.135770650114912739e-01,1.675166363375282241e-01,8.521731639363840137e-04,4.640096682759653089e-04,1.661034330491154343e+00,3.045729742367563331e-01
6.000000000000000888e-01,9.357148467804206060e-01,1.496381250096219806e-01,8.009606142762141796e-04,4.342984391644548101e-04,1.559627193295202607e+00,2.494132584533837738e-01
6.500000000000001332e-01,9.520651176388881254e-01,1.384212688809588476e-01,7.504653133441181951e-04,3.998869476675744722e-04,1.464682261469921754e+00,2.129509561729348854e-01
7.000000000000000666e-01,9.613364019101724445e-01,1.337368341267479999e-01,7.042134347462215274e-04,3.730845907806484493e-04,1.373395712695148596e+00,1.910606882815829299e-01
7.500000000000001110e-01,9.643885865197341367e-01,1.330816017158196751e-01,6.604469790293726258e-04,3.517385601033050846e-04,1.285809217628584022e+00,1.774363079103854213e-01
8.000000000000000444e-01,9.727945627535791173e-01,1.280544453230246238e-01,6.252620682646184772e-04,3.312868939549825482e-04,1.216023157702435409e+00,1.600719997023496433e-01
8.500000000000000888e-01,9.806150892216466408e-01,1.237491914160551570e-01,5.938276132690541425e-04,3.139854955715470929e-04,1.153618006318591904e+00,1.455813774987299858e-01
9.000000000000001332e-01,9.860904123199204507e-01,1.161477768011216771e-01,5.629599849717802735e-04,2.958464816716853928e-04,1.095668009046953495e+00,1.290544982214346381e-01
9.500000000000000666e-01,9.888226527570789237e-01,1.040509930597766780e-01,5.335831511272971089e-04,2.797721138081214190e-04,1.040817372208213465e+00,1.095222493843261979e-01
1.000000000000000000e+00,9.890710382513661081e-01,1.039688392920243148e-01,5.071968650710963677e-04,2.663296809140675253e-04,9.890710382513661081e-01,1.039688392920243148e-01
